Лабораторна робота №1: Основи маніпуляції даними з dplyr
…
Виконати індивідуальне завдання варіанту 3.

Хід роботи

Відфільтрувати діаманти, у яких якість огранки (cut) — "Premium" або "Ideal", а колір (color) — від "D" до "F" (найвища якість). Вибрати лише стовпці: carat, cut, color, clarity, price. Відсортувати за зростанням ціни (price).

Code

diamonds |>
  filter(cut %in% c("Premium", "Ideal"), color %in% c("D", "E", "F")) |>
  select(carat, cut, color, clarity, price) |>
  arrange(price)

# A tibble: 16,834 × 5
   carat cut     color clarity price
   <dbl> <ord>   <ord> <ord>   <int>
 1  0.23 Ideal   E     SI2       326
 2  0.21 Premium E     SI1       326
 3  0.22 Premium F     SI1       342
 4  0.2  Premium E     SI2       345
 5  0.32 Premium E     I1        345
 6  0.2  Premium E     VS2       367
 7  0.2  Premium E     VS2       367
 8  0.2  Premium E     VS2       367
 9  0.2  Premium E     VS2       367
10  0.2  Ideal   E     VS2       367
# ℹ 16,824 more rows

Додати стовпець price_per_carat (ціна за карат), розрахований за формулою: price_per_carat = price / carat. Обрати діаманти, у яких price_per_carat > 5000, і відсортувати їх за спаданням price_per_carat.

Code

diamonds |>
  mutate(price_per_carat = price / carat) |>
  filter(price_per_carat > 5000) |>
  arrange(desc(price_per_carat))

# A tibble: 13,117 × 11
   carat cut   color clarity depth table price     x     y     z price_per_carat
   <dbl> <ord> <ord> <ord>   <dbl> <dbl> <int> <dbl> <dbl> <dbl>           <dbl>
 1  1.04 Very… D     IF       61.3    56 18542  6.53  6.55  4.01          17829.
 2  1.07 Prem… D     IF       60.9    58 18279  6.67  6.57  4.03          17083.
 3  1.03 Ideal D     IF       62      56 17590  6.55  6.44  4.03          17078.
 4  1.07 Very… D     IF       60.9    58 18114  6.57  6.67  4.03          16929.
 5  1.02 Very… D     IF       61.7    59 17100  6.42  6.52  3.99          16765.
 6  1.07 Very… D     IF       59      59 17909  6.63  6.72  3.94          16737.
 7  1.09 Very… D     IF       61.7    58 18231  6.55  6.65  4.07          16726.
 8  1    Ideal D     IF       60.7    57 16469  6.44  6.48  3.92          16469 
 9  1.01 Prem… D     IF       61.6    56 16234  6.46  6.43  3.97          16073.
10  1    Very… D     IF       63.3    59 16073  6.37  6.33  4.02          16073 
# ℹ 13,107 more rows
…
